Exercise II
…
Results are averaged over the levels of: sex 
Confidence level used: 0.95 

Difference between anonymous and public means is significant - 95% confidence interval = (-27.2, -2.37). This conclusion agrees only with Type II Anova summary, as there main effect of condition was also significant.

2.

Use Moore dataset from carData package (type in ?Moore in the console for details).

data("Moore")
Moore <- tibble(Moore)
Moore

# A tibble: 45 x 4
   partner.status conformity fcategory fscore
   <fct>               <int> <fct>      <int>
 1 low                     8 low           37
 2 low                     4 high          57
 3 low                     8 high          65
 4 low                     7 low           20
 5 low                    10 low           36
 6 low                     6 low           18
 7 low                    12 medium        51
 8 low                     4 medium        44
 9 low                    13 low           31
10 low                    12 low           36
# ... with 35 more rows
…
To check conformity level in the relation with the status of your partner, an experimental study was conducted on subjects who were paired with a partner of either low or high status. The dependent variable was conformity and independent variable was partner status. The subjects authoritarianism was also measured with a F-scale score. One-way ANOVA has been conducted to study differences between the group with low and high status partner. It has yielded significant results indicating that the amount of conforming responses was different depending on the partner status. Fscore did not have any effect on the conformity level (p-value = 0.871940). Difference between estimated marginal means of high and low status was \(4.27\) with \(95\)% confidence interval = \((1.33, 7.21)\) indicating that it is significant.

Read the description of the dataset. What kind of study is it? Can you interpret your results in causal terms?

ANSWER: This is an experimental study, as dependent variable - partner status - was manipulated. Therefore, we can conclude causal mechanisms (although, as always, carefully, as there is a possibility that other variables we dont know about influence the result).

3.

Use Adler dataset from carData package. It is data from an experiment. Read its description (it is not super clear but what is important for us is to understand more or less what it is about and what is dependent variable and what are experimental factors).

data("Adler")
Adler <- tibble(Adler)
Adler

# A tibble: 108 x 3
   instruction expectation rating
   <fct>       <fct>        <int>
 1 good        high            25
 2 good        high             0
 3 good        high           -16
 4 good        high             5
 5 good        high            11
 6 good        high            -6
 7 good        high            42
 8 good        high            -2
 9 good        high           -13
10 good        high            14
# ... with 98 more rows
…
Remember about avoiding unnecessary discretization of continuous predictors.

Apart from that use as many variables as possible (in a rather exploratory fashion).

Interpret and report your results.

NOTE. This problem can be solved in particarily many equally good ways. Do not worry about this. Anything that is clear and sound will be accepted.

data("GSSvocab")
GSSvocab <- tibble(GSSvocab)
GSSvocab <- GSSvocab %>% filter(year == 2016)
GSSvocab

# A tibble: 1,888 x 8
   year  gender nativeBorn ageGroup educGroup vocab   age  educ
   <fct> <fct>  <fct>      <fct>    <fct>     <dbl> <dbl> <dbl>
 1 2016  male   yes        40-49    16 yrs        8    47    16
 2 2016  male   yes        60+      12 yrs        5    61    12
 3 2016  female yes        40-49    12 yrs        5    43    12
 4 2016  female no         50-59    13-15 yrs     8    53    14
 5 2016  male   no         50-59    13-15 yrs     6    50    14
 6 2016  male   no         40-49    12 yrs        6    45    12
 7 2016  female yes        30-39    12 yrs        3    33    12
 8 2016  female yes        60+      12 yrs        3    86    12
 9 2016  male   yes        30-39    12 yrs        4    32    12
10 2016  male   yes        60+      <12 yrs       4    76    10
# ... with 1,878 more rows
…
GSSvocab[, c(2,3,6,7,8)]

# A tibble: 1,856 x 5
   gender nativeBorn vocab   age  educ
   <fct>  <fct>      <dbl> <dbl> <dbl>
 1 male   yes            8    47    16
 2 male   yes            5    61    12
 3 female yes            5    43    12
 4 female no             8    53    14
 5 male   no             6    50    14
 6 male   no             6    45    12
 7 female yes            3    33    12
 8 female yes            3    86    12
 9 male   yes            4    32    12
10 male   yes            4    76    10
# ... with 1,846 more rows
…
