Exercise III
…
What kind of model you may use to deal with this kind of correlation structure?

Model with random effects for experiments with repeated measurements

Coding problems

1. (2 points)

Use Cowles dataset from carData package. It is a very simple dataset on psychological correlates of volunteering (see ?Cowles for details). Build an appropriate statistical model for explaining volunteer variable. Report your results properly and try to visualize your results in a legible manner.

data(Cowles)
(Cowles <- tibble(Cowles))

# A tibble: 1,421 x 4
   neuroticism extraversion sex    volunteer
         <int>        <int> <fct>  <fct>    
 1          16           13 female no       
 2           8           14 male   no       
 3           5           16 male   no       
 4           8           20 female no       
 5           9           19 male   no       
 6           6           15 male   no       
 7           8           10 female no       
 8          12           11 male   no       
 9          15           16 male   no       
10          18            7 male   no       
# ... with 1,411 more rows
…
2. (2 points)

Use SLID dataset from carData package. It is a dataset for 1994 wave of the Canadian Survey of Labour and Income Dynamics (for the Ontario province). Use it to explain wages based on education, age, sex and language. Use the model to estimate potential income disparities with respect to sex and language while controlling for other covariates.

Report your results properly and try to visualize your main findings.

If you transform the response variable you should write down the equation for \(\hat{y}_i\) in the original scale.

data(SLID)
SLID <- tibble(SLID)
SLID <- SLID[complete.cases(SLID),]
SLID 

# A tibble: 3,987 x 5
   wages education   age sex    language
   <dbl>     <dbl> <int> <fct>  <fct>   
 1 10.6       15      40 Male   English 
 2 11         13.2    19 Male   English 
 3 17.8       14      46 Male   Other   
 4 14         16      50 Female English 
 5  8.2       15      31 Male   English 
 6 17.0       13.5    30 Female English 
 7  6.7       12      61 Female English 
 8 14         14      46 Female Other   
 9 19.2       18      43 Male   English 
10  7.25      11      17 Male   English 
# ... with 3,977 more rows
…
(\(x1\) - sex, \(x2\) - education, \(x3\) - age)

3. (2 points)

Use Baumann data from carData package. It is a dataset with results of an experiment on the efficacy of three different teaching methods (group variables). Subjects were assigned randomly to experimental groups. Your response variable should be differences between post- and pre-tests (only \(1\) and \(2\), ignore post-test \(3\)).

Estimate the efficacy of different methods. Remember that there are two measurements per subject. Report your results properly and try to visualize them.

Are there both between-subject and within-subject effects here? If yes, then which is which?

data(Baumann)
(Baumann <- tibble(Baumann))

# A tibble: 66 x 6
   group pretest.1 pretest.2 post.test.1 post.test.2 post.test.3
   <fct>     <int>     <int>       <int>       <int>       <int>
 1 Basal         4         3           5           4          41
 2 Basal         6         5           9           5          41
 3 Basal         9         4           5           3          43
 4 Basal        12         6           8           5          46
 5 Basal        16         5          10           9          46
 6 Basal        15        13           9           8          45
 7 Basal        14         8          12           5          45
 8 Basal        12         7           5           5          32
 9 Basal        12         3           8           7          33
10 Basal         8         8           7           7          39
# ... with 56 more rows
…
(\(x1\) - load, \(x2\) - len, \(x3\) - amp)

5. (2 points)

Use TitanicSurvival dataset from carData package (see ?TitanicSurvival). Use it to find out who was most likely to survive the Titanic catastrophe. The response is the dichotomous survived variable.

For convenience, the dataset is assigned to Titanic variable.

As always, report and describe your results properly. Try to visualize them if it may facilitate understanding.

data(TitanicSurvival)
(Titanic <- tibble(TitanicSurvival))

# A tibble: 1,309 x 4
   survived sex       age passengerClass
   <fct>    <fct>   <dbl> <fct>         
 1 yes      female 29     1st           
 2 yes      male    0.917 1st           
 3 no       female  2     1st           
 4 no       male   30     1st           
 5 no       female 25     1st           
 6 yes      male   48     1st           
 7 yes      female 63     1st           
 8 no       male   39     1st           
 9 yes      female 53     1st           
10 no       male   71     1st           
# ... with 1,299 more rows
…
\[
\bar{d} = e^{\bar{d}_{\text{log}}}
\\\bar{d} = \frac{e^{\bar{x_i}_{\text{log}}}}{e^{\bar{x_j}_{\text{log}}}}
\\\bar{d} = \frac{e^{\log{\sqrt[n_1]{x_1*...*x_i}}}}{e^{\log{\sqrt[n2]{x_1*...*x_j}}}}
\\\bar{d} = \frac{\sqrt[n_1]{x_1*...*x_i}}{\sqrt[n2]{x_1*...*x_j}}
\]

With these results in hand you should be able to run a test with log(wages) as the dependent variable and interpret the results on the original scale. In particular, you should construct a proper confidence interval in the original scale.

data(SLID)
(SLID <- tibble(SLID))

# A tibble: 7,425 x 5
   wages education   age sex    language
   <dbl>     <dbl> <int> <fct>  <fct>   
 1  10.6      15      40 Male   English 
 2  11        13.2    19 Male   English 
 3  NA        16      49 Male   Other   
 4  17.8      14      46 Male   Other   
 5  NA         8      71 Male   English 
 6  14        16      50 Female English 
 7  NA        12      70 Female English 
 8  NA        14.5    42 Female English 
 9   8.2      15      31 Male   English 
10  NA        10      56 Female English 
# ... with 7,415 more rows
…
